%YAML 1.1
%TAG !u! tag:unity3d.com,2011:
--- !u!114 &11400000
MonoBehaviour:
  m_ObjectHideFlags: 0
  m_CorrespondingSourceObject: {fileID: 0}
  m_PrefabInstance: {fileID: 0}
  m_PrefabAsset: {fileID: 0}
  m_GameObject: {fileID: 0}
  m_Enabled: 1
  m_EditorHideFlags: 0
  m_Script: {fileID: 13312, guid: 0000000000000000e000000000000000, type: 0}
  m_Name: "cave_0000_\u0426\u0432\u0435\u0442\u043E\u0432\u043E\u0439-\u0442\u043E\u043D_\u041D\u0430\u0441\u044B\u0449\u0435\u043D\u043D\u043E\u0441\u0442\u044C-1_6"
  m_EditorClassIdentifier: 
  m_Sprite: {fileID: -759167474693759348, guid: 4267d8b1e45fd9745827dcd4644a61de,
    type: 3}
  m_Color: {r: 1, g: 1, b: 1, a: 1}
  m_Transform:
    e00: 1
    e01: 0
    e02: 0
    e03: 0
    e10: 0
    e11: 1
    e12: 0
    e13: 0
    e20: 0
    e21: 0
    e22: 1
    e23: 0
    e30: 0
    e31: 0
    e32: 0
    e33: 1
  m_InstancedGameObject: {fileID: 0}
  m_Flags: 1
  m_ColliderType: 1
